holiday^type^201^100^1^
holiday^date_begin^7^4^2^
holiday^duration^1^2^3^
holiday^comment^201^65534^4^
holiday^status^201^100^5^
holiday^is_allday^201^100^6^
holiday^id^257^2^7^
holiday^id_user^1^2^8^
holiday^date_end^7^4^9^
holiday^is_begin_halfday^45^1^10^
holiday^is_end_halfday^45^1^11^
log_activity^id^262^4^1^
log_activity^id_user^258^4^2^
log_activity^comment^201^65534^3^
log_activity^type^1^2^4^
public_holidays^id^257^2^1^
public_holidays^date_holiday^7^4^2^
public_holidays^description_holiday^201^65534^3^
user^id^257^2^1^
user^firstname^201^45^2^
user^lastname^201^45^3^
user^is_admin^45^1^4^
user^balance_holiday^1^2^5^
user^balance_rt^1^2^6^
user^id_chief^1^2^7^
user^username^201^45^8^
user^password^201^45^9^
